Introduction to Data Manipulation with R
…
## # A tibble: 8  3
##         date    pop unemploy
##       <date>  <int>    <int>
## 1 1967-07-01 198712     2944
## 2 1967-08-01 198911     2945
## 3 1967-09-01 199113     2958
## 4 1967-10-01 199311     3143
## 5 1967-11-01 199498     3066
## 6 1967-12-01 199657     3018
## 7 1968-01-01 199808     2878
## 8 1968-02-01 199920     3001

Tidy or not?

## Source: local data frame [2,870 x 3]
## Groups: variable [5]
## 
##          date variable value
##        <date>   <fctr> <dbl>
## 1  1967-07-01      pce 507.4
## 2  1967-08-01      pce 510.5
## 3  1967-09-01      pce 516.3
## 4  1967-10-01      pce 512.9
## 5  1967-11-01      pce 518.1
## 6  1967-12-01      pce 525.8
## 7  1968-01-01      pce 531.5
## 8  1968-02-01      pce 534.2
## 9  1968-03-01      pce 544.9
## 10 1968-04-01      pce 544.6
## # ... with 2,860 more rows
…
